{
    "id": "nodebb-plugin-mathforu",
	"name": "Custom MathforU templates",
    "url": "https://nimblydev@bitbucket.org/mathforu/nodebb-plugin-mathforu.git",
    "library": "./library.js",
    "staticDirs": {
        "images": "public/images"
    },
    "less": [
    ],
    "templates": "static/templates"
}